info face="Waree" size=32 bold=0 italic=0 charset="" unicode=0 stretchH=100 smooth=1 aa=1 padding=0,0,0,0 spacing=0,0
common lineHeight=54 base=40 scaleW=512 scaleH=512 pages=1 packed=0
page id=0 file="font.png"
chars count=95
char id=32   x=0     y=0     width=0     height=0     xoffset=0     yoffset=40    xadvance=10     page=0  chnl=0 
char id=124   x=0     y=0     width=5     height=34     xoffset=4     yoffset=15    xadvance=11     page=0  chnl=0 
char id=106   x=5     y=0     width=8     height=33     xoffset=0     yoffset=14    xadvance=9     page=0  chnl=0 
char id=125   x=13     y=0     width=13     height=32     xoffset=5     yoffset=14    xadvance=20     page=0  chnl=0 
char id=123   x=26     y=0     width=14     height=32     xoffset=4     yoffset=14    xadvance=20     page=0  chnl=0 
char id=74   x=40     y=0     width=10     height=32     xoffset=-1     yoffset=15    xadvance=9     page=0  chnl=0 
char id=127   x=50     y=0     width=18     height=31     xoffset=2     yoffset=16    xadvance=19     page=0  chnl=0 
char id=36   x=68     y=0     width=17     height=31     xoffset=3     yoffset=14    xadvance=20     page=0  chnl=0 
char id=93   x=85     y=0     width=8     height=31     xoffset=3     yoffset=14    xadvance=12     page=0  chnl=0 
char id=91   x=93     y=0     width=8     height=31     xoffset=3     yoffset=14    xadvance=12     page=0  chnl=0 
char id=41   x=101     y=0     width=10     height=31     xoffset=2     yoffset=15    xadvance=12     page=0  chnl=0 
char id=40   x=111     y=0     width=9     height=31     xoffset=3     yoffset=15    xadvance=12     page=0  chnl=0 
char id=64   x=120     y=0     width=29     height=30     xoffset=2     yoffset=17    xadvance=32     page=0  chnl=0 
char id=81   x=149     y=0     width=23     height=30     xoffset=2     yoffset=15    xadvance=25     page=0  chnl=0 
char id=92   x=172     y=0     width=12     height=29     xoffset=0     yoffset=15    xadvance=11     page=0  chnl=0 
char id=47   x=184     y=0     width=13     height=29     xoffset=-1     yoffset=15    xadvance=11     page=0  chnl=0 
char id=113   x=197     y=0     width=18     height=27     xoffset=2     yoffset=21    xadvance=20     page=0  chnl=0 
char id=112   x=215     y=0     width=18     height=27     xoffset=3     yoffset=21    xadvance=20     page=0  chnl=0 
char id=108   x=233     y=0     width=5     height=27     xoffset=3     yoffset=14    xadvance=9     page=0  chnl=0 
char id=107   x=238     y=0     width=16     height=27     xoffset=3     yoffset=14    xadvance=19     page=0  chnl=0 
char id=105   x=254     y=0     width=5     height=27     xoffset=3     yoffset=14    xadvance=9     page=0  chnl=0 
char id=104   x=259     y=0     width=17     height=27     xoffset=3     yoffset=14    xadvance=20     page=0  chnl=0 
char id=102   x=276     y=0     width=12     height=27     xoffset=1     yoffset=14    xadvance=11     page=0  chnl=0 
char id=100   x=288     y=0     width=18     height=27     xoffset=2     yoffset=14    xadvance=20     page=0  chnl=0 
char id=98   x=306     y=0     width=18     height=27     xoffset=3     yoffset=14    xadvance=20     page=0  chnl=0 
char id=38   x=324     y=0     width=23     height=26     xoffset=2     yoffset=15    xadvance=25     page=0  chnl=0 
char id=37   x=347     y=0     width=28     height=26     xoffset=2     yoffset=15    xadvance=30     page=0  chnl=0 
char id=63   x=375     y=0     width=15     height=26     xoffset=2     yoffset=15    xadvance=17     page=0  chnl=0 
char id=33   x=390     y=0     width=5     height=26     xoffset=5     yoffset=15    xadvance=13     page=0  chnl=0 
char id=57   x=395     y=0     width=17     height=26     xoffset=2     yoffset=15    xadvance=20     page=0  chnl=0 
char id=55   x=412     y=0     width=16     height=26     xoffset=3     yoffset=15    xadvance=20     page=0  chnl=0 
char id=54   x=428     y=0     width=18     height=26     xoffset=2     yoffset=15    xadvance=20     page=0  chnl=0 
char id=53   x=446     y=0     width=17     height=26     xoffset=2     yoffset=15    xadvance=20     page=0  chnl=0 
char id=52   x=463     y=0     width=18     height=26     xoffset=2     yoffset=15    xadvance=20     page=0  chnl=0 
char id=51   x=481     y=0     width=18     height=26     xoffset=2     yoffset=15    xadvance=20     page=0  chnl=0 
char id=50   x=0     y=34     width=16     height=26     xoffset=3     yoffset=15    xadvance=20     page=0  chnl=0 
char id=49   x=16     y=34     width=15     height=26     xoffset=4     yoffset=15    xadvance=20     page=0  chnl=0 
char id=121   x=31     y=34     width=18     height=26     xoffset=1     yoffset=21    xadvance=19     page=0  chnl=0 
char id=103   x=49     y=34     width=18     height=26     xoffset=2     yoffset=21    xadvance=20     page=0  chnl=0 
char id=90   x=67     y=34     width=21     height=26     xoffset=0     yoffset=15    xadvance=22     page=0  chnl=0 
char id=89   x=88     y=34     width=21     height=26     xoffset=0     yoffset=15    xadvance=20     page=0  chnl=0 
char id=88   x=109     y=34     width=21     height=26     xoffset=1     yoffset=15    xadvance=22     page=0  chnl=0 
char id=87   x=130     y=34     width=31     height=26     xoffset=1     yoffset=15    xadvance=32     page=0  chnl=0 
char id=86   x=161     y=34     width=23     height=26     xoffset=0     yoffset=15    xadvance=22     page=0  chnl=0 
char id=85   x=184     y=34     width=19     height=26     xoffset=3     yoffset=15    xadvance=23     page=0  chnl=0 
char id=84   x=203     y=34     width=21     height=26     xoffset=0     yoffset=15    xadvance=20     page=0  chnl=0 
char id=83   x=224     y=34     width=18     height=26     xoffset=2     yoffset=15    xadvance=20     page=0  chnl=0 
char id=82   x=242     y=34     width=20     height=26     xoffset=3     yoffset=15    xadvance=22     page=0  chnl=0 
char id=80   x=262     y=34     width=17     height=26     xoffset=3     yoffset=15    xadvance=19     page=0  chnl=0 
char id=79   x=279     y=34     width=23     height=26     xoffset=2     yoffset=15    xadvance=25     page=0  chnl=0 
char id=78   x=302     y=34     width=20     height=26     xoffset=3     yoffset=15    xadvance=24     page=0  chnl=0 
char id=77   x=322     y=34     width=23     height=26     xoffset=3     yoffset=15    xadvance=28     page=0  chnl=0 
char id=76   x=345     y=34     width=16     height=26     xoffset=3     yoffset=15    xadvance=18     page=0  chnl=0 
char id=75   x=361     y=34     width=20     height=26     xoffset=3     yoffset=15    xadvance=21     page=0  chnl=0 
char id=73   x=381     y=34     width=5     height=26     xoffset=3     yoffset=15    xadvance=9     page=0  chnl=0 
char id=72   x=386     y=34     width=20     height=26     xoffset=3     yoffset=15    xadvance=24     page=0  chnl=0 
char id=71   x=406     y=34     width=22     height=26     xoffset=2     yoffset=15    xadvance=25     page=0  chnl=0 
char id=70   x=428     y=34     width=15     height=26     xoffset=3     yoffset=15    xadvance=18     page=0  chnl=0 
char id=69   x=443     y=34     width=17     height=26     xoffset=3     yoffset=15    xadvance=20     page=0  chnl=0 
char id=68   x=460     y=34     width=21     height=26     xoffset=3     yoffset=15    xadvance=25     page=0  chnl=0 
char id=67   x=481     y=34     width=20     height=26     xoffset=2     yoffset=15    xadvance=22     page=0  chnl=0 
char id=66   x=0     y=60     width=18     height=26     xoffset=3     yoffset=15    xadvance=22     page=0  chnl=0 
char id=65   x=18     y=60     width=23     height=26     xoffset=0     yoffset=15    xadvance=22     page=0  chnl=0 
char id=48   x=41     y=60     width=18     height=25     xoffset=2     yoffset=16    xadvance=20     page=0  chnl=0 
char id=56   x=59     y=60     width=18     height=25     xoffset=2     yoffset=16    xadvance=20     page=0  chnl=0 
char id=116   x=77     y=60     width=12     height=25     xoffset=1     yoffset=16    xadvance=13     page=0  chnl=0 
char id=35   x=89     y=60     width=24     height=24     xoffset=2     yoffset=17    xadvance=27     page=0  chnl=0 
char id=59   x=113     y=60     width=7     height=23     xoffset=2     yoffset=22    xadvance=11     page=0  chnl=0 
char id=43   x=120     y=60     width=21     height=22     xoffset=4     yoffset=19    xadvance=27     page=0  chnl=0 
char id=122   x=141     y=60     width=16     height=20     xoffset=0     yoffset=21    xadvance=17     page=0  chnl=0 
char id=120   x=157     y=60     width=18     height=20     xoffset=1     yoffset=21    xadvance=19     page=0  chnl=0 
char id=119   x=175     y=60     width=25     height=20     xoffset=1     yoffset=21    xadvance=26     page=0  chnl=0 
char id=118   x=200     y=60     width=18     height=20     xoffset=1     yoffset=21    xadvance=19     page=0  chnl=0 
char id=117   x=218     y=60     width=16     height=20     xoffset=3     yoffset=21    xadvance=20     page=0  chnl=0 
char id=115   x=234     y=60     width=15     height=20     xoffset=1     yoffset=21    xadvance=17     page=0  chnl=0 
char id=114   x=249     y=60     width=12     height=20     xoffset=3     yoffset=21    xadvance=13     page=0  chnl=0 
char id=110   x=261     y=60     width=17     height=20     xoffset=3     yoffset=21    xadvance=20     page=0  chnl=0 
char id=109   x=278     y=60     width=28     height=20     xoffset=3     yoffset=21    xadvance=31     page=0  chnl=0 
char id=101   x=306     y=60     width=18     height=20     xoffset=2     yoffset=21    xadvance=20     page=0  chnl=0 
char id=99   x=324     y=60     width=15     height=20     xoffset=2     yoffset=21    xadvance=18     page=0  chnl=0 
char id=60   x=339     y=60     width=22     height=19     xoffset=3     yoffset=21    xadvance=27     page=0  chnl=0 
char id=58   x=361     y=60     width=5     height=19     xoffset=4     yoffset=22    xadvance=11     page=0  chnl=0 
char id=111   x=366     y=60     width=18     height=19     xoffset=2     yoffset=22    xadvance=20     page=0  chnl=0 
char id=97   x=384     y=60     width=17     height=19     xoffset=2     yoffset=22    xadvance=20     page=0  chnl=0 
char id=42   x=401     y=60     width=15     height=17     xoffset=1     yoffset=15    xadvance=16     page=0  chnl=0 
char id=62   x=416     y=60     width=22     height=17     xoffset=3     yoffset=22    xadvance=27     page=0  chnl=0 
char id=94   x=438     y=60     width=22     height=11     xoffset=3     yoffset=15    xadvance=27     page=0  chnl=0 
char id=39   x=460     y=60     width=5     height=11     xoffset=3     yoffset=15    xadvance=9     page=0  chnl=0 
char id=34   x=465     y=60     width=11     height=11     xoffset=3     yoffset=15    xadvance=15     page=0  chnl=0 
char id=61   x=476     y=60     width=22     height=10     xoffset=3     yoffset=25    xadvance=27     page=0  chnl=0 
char id=44   x=498     y=60     width=7     height=10     xoffset=2     yoffset=35    xadvance=10     page=0  chnl=0 
char id=96   x=0     y=86     width=8     height=8     xoffset=3     yoffset=13    xadvance=16     page=0  chnl=0 
char id=126   x=8     y=86     width=22     height=7     xoffset=3     yoffset=27    xadvance=27     page=0  chnl=0 
char id=46   x=30     y=86     width=5     height=6     xoffset=3     yoffset=35    xadvance=10     page=0  chnl=0 
char id=95   x=35     y=86     width=19     height=4     xoffset=-1     yoffset=45    xadvance=16     page=0  chnl=0 
char id=45   x=54     y=86     width=10     height=4     xoffset=2     yoffset=30    xadvance=12     page=0  chnl=0 
